{"count":15,"next":"http://quizai-production.up.railway.app/api/quizzes/?page=2","previous":null,"results":[{"id":16,"share_token":"91799212-fd68-4595-bf89-1c97d50585dd","topic":"CSS","difficulty":"easy","num_questions":5,"created_by_name":"user1_v5","created_at":"2026-03-15T14:43:32.306487Z"},{"id":15,"share_token":"d863ebd4-17b2-4774-8af1-f933979d369a","topic":"CSS","difficulty":"easy","num_questions":5,"created_by_name":"user1_v5","created_at":"2026-03-15T14:40:12.370914Z"},{"id":14,"share_token":"52bf4028-16f8-4437-b24d-149adc1ff5b2","topic":"CSS","difficulty":"easy","num_questions":5,"created_by_name":"user1_v5","created_at":"2026-03-15T14:39:26.474038Z"},{"id":13,"share_token":"bc51856c-5e42-449c-b091-eb04d5ddab12","topic":"CSS","difficulty":"easy","num_questions":5,"created_by_name":"user1_v5","created_at":"2026-03-15T14:39:11.414692Z"},{"id":12,"share_token":"60ffb1a9-eddf-42a9-8e7a-1d24a49cfd05","topic":"CSS","difficulty":"easy","num_questions":5,"created_by_name":"user1_v5","created_at":"2026-03-15T14:38:54.056739Z"},{"id":11,"share_token":"66676ec9-aaac-4bf8-b3fb-7b85c5f0607c","topic":"JavaScript","difficulty":"medium","num_questions":5,"created_by_name":"user1_v5","created_at":"2026-03-15T14:29:05.126048Z"},{"id":10,"share_token":"c149451e-1419-4163-8616-b0f3daafc9cf","topic":"JavaScript","difficulty":"medium","num_questions":5,"created_by_name":"user1_v5","created_at":"2026-03-15T14:28:34.432909Z"},{"id":9,"share_token":"2ebdb83c-a572-4afa-8b26-ce5656814863","topic":"JavaScript","difficulty":"medium","num_questions":5,"created_by_name":"user1_v5","created_at":"2026-03-15T14:28:12.781323Z"},{"id":8,"share_token":"b3b1c4d3-0fd9-492f-a202-5aa8ddc0d56c","topic":"Python basics","difficulty":"easy","num_questions":5,"created_by_name":"user1_v5","created_at":"2026-03-15T14:17:43.943333Z"},{"id":7,"share_token":"c3d3662c-bd3a-4cb8-b25b-71fa1a720be5","topic":"Python basics","difficulty":"easy","num_questions":5,"created_by_name":"user1_v5","created_at":"2026-03-15T14:17:17.498790Z"}]}